{
  "base_spec": "/pa/tools/engineer_build_arm/engineer_build_arm.json",
  "yaw_rate": 360,
  "pitch_rate": 360,
  "max_range": 75,
  "auto_repair": true,
  "construction_demand": {
    "energy": 400,
    "metal": 45
  },
  "can_only_assist_with_buildable_items": true
}