{
  "base_spec": "/pa/ammo/base_shell/base_shell.json",
  "damage": 80,
  "splash_damage": 10,
  "splash_radius": 7,
  "initial_velocity": 85,
  "max_velocity": 85,
  "lifetime": 3,
  "fx_trail": {
    "filename": "/pa/units/sea/battleship/battleship_shell_proj_trail.pfx",
    "offset": [
      0,
      0.7,
      0
    ]
  },
  "events": {
    "died": {
      "effect_spec": "/pa/units/sea/battleship/battleship_hit.pfx"
    }
  }
}