{
  "base_spec": "/pa/ammo/base_bullet/base_bullet.json",
  "damage": 35,
  "splash_damage": 0,
  "splash_radius": 0,
  "initial_velocity": 130,
  "max_velocity": 130,
  "model": null,
  "lifetime": 3,
  "fx_trail": {
    "filename": "/pa/effects/specs/bullet_proj_trail.pfx",
    "offset": [
      0,
      0,
      0
    ]
  }
}